﻿La generació ha començat el: 10/3/23 8:57

The random seed at the start of generation is:
	s10=1795914093, s11=3071645266, s12=3990798621,
	s20=1796885972, s21=1888891849, s22=3310708912.

Aquest fitxer va ser automàticament generat per FET 6.8.0.
